docker run \
  -p 9000:9000 \
  -p 9001:9001 \
  -v /mnt/data:/data \
  -e "MINIO_ROOT_USER=shivamsharma" \
  -e "MINIO_ROOT_PASSWORD=shivamsharma1" \
  minio/minio server /data --console-address ":9001"




=====================================================================================================================================


docker run \
  -p 9000:9000 \
  -p 9001:9001 \
  --name minio \
  -e "MINIO_ROOT_USER=shivamsharma" \
  -e "MINIO_ROOT_PASSWORD=shivamsharma1" \
  -v /mnt/data:/data \
  minio/minio server /data --console-address ":9001"



================================


docker run -d -p 9000:9000  -e "MINIO_ROOT_USER=AKIAIOSFODNN7EXAMPLE"  -e "MINIO_ROOT_PASSWORD=wJalrXUtnFEMI/K7MDENG/bPxRfiCYEXAMPLEKEY"  minio/minio server /data

===================
kill a container
=> docker rm <container id>

stop a container
=> docker stop <container id>

kill a image
=> docker rmi <image id>

kill a process
=> kill -9 <process id/ name /data>







